inkludera stdio
inkluder stdlib
inkludera windows


variabel answer att stoppa svaret i

print("vill du sätta på strömmen") 1 = ja 2 = nej
if = 1
    starting power....
    power: ON
    CTRL + C till att stänga.
    do
        ---_ _ _ --- SOS
        while(1)
else
    return 0;


